{
  "rows": [
    {
      "q": "apple",
      "sound": "a",
      "image": "apple",
      "audio": "apple",
      "sound_audio": "a",
      "secondary_first_sound": "ant",
      "similar_first_sound_1": "bat",
      "similar_first_sound_2": "rabbit",
      "similar_first_sound_3": "cat",
      "exclude1": "",
      "exclude2": "",
      "exclude3": ""
    },
    {
      "q": "ant",
      "sound": "a",
      "image": "ant",
      "audio": "ant",
      "sound_audio": "a",
      "secondary_first_sound": "apple",
      "similar_first_sound_1": "cake",
      "similar_first_sound_2": "",
      "similar_first_sound_3": "",
      "exclude1": "",
      "exclude2": "",
      "exclude3": ""
    },
    {
      "q": "bone",
      "sound": "b",
      "image": "bone",
      "audio": "bone",
      "sound_audio": "b",
      "secondary_first_sound": "bat",
      "similar_first_sound_1": "duck",
      "similar_first_sound_2": "dog",
      "similar_first_sound_3": "penguin",
      "exclude1": "motobike",
      "exclude2": "",
      "exclude3": ""
    },
    {
      "q": "bat",
      "sound": "b",
      "image": "bat",
      "audio": "bat",
      "sound_audio": "b",
      "secondary_first_sound": "bone",
      "similar_first_sound_1": "duck",
      "similar_first_sound_2": "dog",
      "similar_first_sound_3": "pen",
      "exclude1": "apple",
      "exclude2": "teddy",
      "exclude3": "rabbit"
    },
    {
      "q": "cake",
      "sound": "k",
      "image": "cake",
      "audio": "cake",
      "sound_audio": "k",
      "secondary_first_sound": "cat",
      "similar_first_sound_1": "kangaroo",
      "similar_first_sound_2": "key",
      "similar_first_sound_3": "cake",
      "exclude1": "quack",
      "exclude2": "ant",
      "exclude3": ""
    },
    {
      "q": "cat",
      "sound": "k",
      "image": "cat",
      "audio": "cat",
      "sound_audio": "k",
      "secondary_first_sound": "cake",
      "similar_first_sound_1": "kangaroo",
      "similar_first_sound_2": "key",
      "similar_first_sound_3": "",
      "exclude1": "ant",
      "exclude2": "",
      "exclude3": ""
    },
    {
      "q": "duck",
      "sound": "d",
      "image": "duck",
      "audio": "duck",
      "sound_audio": "d",
      "secondary_first_sound": "dog",
      "similar_first_sound_1": "bone",
      "similar_first_sound_2": "bat",
      "similar_first_sound_3": "teddy",
      "exclude1": "kangaroo",
      "exclude2": "",
      "exclude3": ""
    },
    {
      "q": "dog",
      "sound": "d",
      "image": "dog",
      "audio": "dog",
      "sound_audio": "d",
      "secondary_first_sound": "duck",
      "similar_first_sound_1": "bone",
      "similar_first_sound_2": "bat",
      "similar_first_sound_3": "teddy",
      "exclude1": "octopus",
      "exclude2": "",
      "exclude3": ""
    },
    {
      "q": "elephant",
      "sound": "e",
      "image": "elephant",
      "audio": "elephant",
      "sound_audio": "e",
      "secondary_first_sound": "egg",
      "similar_first_sound_1": "key",
      "similar_first_sound_2": "",
      "similar_first_sound_3": "",
      "exclude1": "red",
      "exclude2": "",
      "exclude3": ""
    },
    {
      "q": "egg",
      "sound": "e",
      "image": "egg",
      "audio": "egg",
      "sound_audio": "e",
      "secondary_first_sound": "elephant",
      "similar_first_sound_1": "jellyfish",
      "similar_first_sound_2": "in",
      "similar_first_sound_3": "six",
      "exclude1": "",
      "exclude2": "",
      "exclude3": ""
    },
    {
      "q": "five",
      "sound": "f",
      "image": "five",
      "audio": "five",
      "sound_audio": "f",
      "secondary_first_sound": "fish",
      "similar_first_sound_1": "volcano",
      "similar_first_sound_2": "van",
      "similar_first_sound_3": "",
      "exclude1": "",
      "exclude2": "",
      "exclude3": ""
    },
    {
      "q": "fish",
      "sound": "f",
      "image": "fish",
      "audio": "fish",
      "sound_audio": "f",
      "secondary_first_sound": "five",
      "similar_first_sound_1": "volcano",
      "similar_first_sound_2": "van",
      "similar_first_sound_3": "",
      "exclude1": "fox",
      "exclude2": "",
      "exclude3": ""
    },
    {
      "q": "gate",
      "sound": "g",
      "image": "gate",
      "audio": "gate",
      "sound_audio": "g",
      "secondary_first_sound": "goat",
      "similar_first_sound_1": "cake",
      "similar_first_sound_2": "cat",
      "similar_first_sound_3": "",
      "exclude1": "",
      "exclude2": "",
      "exclude3": ""
    },
    {
      "q": "goat",
      "sound": "g",
      "image": "goat",
      "audio": "goat",
      "sound_audio": "g",
      "secondary_first_sound": "gate",
      "similar_first_sound_1": "cake",
      "similar_first_sound_2": "cat",
      "similar_first_sound_3": "",
      "exclude1": "",
      "exclude2": "",
      "exclude3": ""
    },
    {
      "q": "house",
      "sound": "h",
      "image": "house",
      "audio": "house",
      "sound_audio": "h",
      "secondary_first_sound": "hat",
      "similar_first_sound_1": "",
      "similar_first_sound_2": "",
      "similar_first_sound_3": "",
      "exclude1": "",
      "exclude2": "",
      "exclude3": ""
    },
    {
      "q": "hat",
      "sound": "h",
      "image": "hat",
      "audio": "hat",
      "sound_audio": "h",
      "secondary_first_sound": "house",
      "similar_first_sound_1": "",
      "similar_first_sound_2": "",
      "similar_first_sound_3": "",
      "exclude1": "",
      "exclude2": "",
      "exclude3": ""
    },
    {
      "q": "insects",
      "sound": "i",
      "image": "insects",
      "audio": "insects",
      "sound_audio": "i",
      "secondary_first_sound": "in",
      "similar_first_sound_1": "",
      "similar_first_sound_2": "",
      "similar_first_sound_3": "",
      "exclude1": "",
      "exclude2": "",
      "exclude3": ""
    },
    {
      "q": "in",
      "sound": "i",
      "image": "in",
      "audio": "in",
      "sound_audio": "i",
      "secondary_first_sound": "insects",
      "similar_first_sound_1": "six",
      "similar_first_sound_2": "egg",
      "similar_first_sound_3": "chimp",
      "exclude1": "",
      "exclude2": "",
      "exclude3": ""
    },
    {
      "q": "jellyfish",
      "sound": "j",
      "image": "jellyfish",
      "audio": "jellyfish",
      "sound_audio": "j",
      "secondary_first_sound": "jug",
      "similar_first_sound_1": "egg",
      "similar_first_sound_2": "elephant ",
      "similar_first_sound_3": "shark",
      "exclude1": "",
      "exclude2": "",
      "exclude3": ""
    },
    {
      "q": "jug",
      "sound": "j",
      "image": "jug",
      "audio": "jug",
      "sound_audio": "j",
      "secondary_first_sound": "jellyfish",
      "similar_first_sound_1": "",
      "similar_first_sound_2": "",
      "similar_first_sound_3": "",
      "exclude1": "",
      "exclude2": "",
      "exclude3": ""
    },
    {
      "q": "kangaroo",
      "sound": "k",
      "image": "kangaroo",
      "audio": "kangaroo",
      "sound_audio": "k",
      "secondary_first_sound": "key",
      "similar_first_sound_1": "queen",
      "similar_first_sound_2": "quck",
      "similar_first_sound_3": "cake",
      "exclude1": "red",
      "exclude2": "duck",
      "exclude3": ""
    },
    {
      "q": "key",
      "sound": "k",
      "image": "keys",
      "audio": "key",
      "sound_audio": "k",
      "secondary_first_sound": "kangaroo",
      "similar_first_sound_1": "queen",
      "similar_first_sound_2": "quck",
      "similar_first_sound_3": "cat",
      "exclude1": "egg",
      "exclude2": "",
      "exclude3": ""
    },
    {
      "q": "lion",
      "sound": "l",
      "image": "lion",
      "audio": "lion",
      "sound_audio": "l",
      "secondary_first_sound": "log",
      "similar_first_sound_1": "yellow",
      "similar_first_sound_2": "yo-yo",
      "similar_first_sound_3": "rabbit",
      "exclude1": "",
      "exclude2": "",
      "exclude3": ""
    },
    {
      "q": "log",
      "sound": "l",
      "image": "log",
      "audio": "log",
      "sound_audio": "l",
      "secondary_first_sound": "lion",
      "similar_first_sound_1": "yellow",
      "similar_first_sound_2": "yo-yo",
      "similar_first_sound_3": "red",
      "exclude1": "",
      "exclude2": "",
      "exclude3": ""
    },
    {
      "q": "motorbike",
      "sound": "m",
      "image": "motorbike",
      "audio": "motorbike",
      "sound_audio": "m",
      "secondary_first_sound": "man",
      "similar_first_sound_1": "nest",
      "similar_first_sound_2": "net",
      "similar_first_sound_3": "bone",
      "exclude1": "",
      "exclude2": "",
      "exclude3": ""
    },
    {
      "q": "man",
      "sound": "m",
      "image": "man",
      "audio": "man",
      "sound_audio": "m",
      "secondary_first_sound": "motorbike",
      "similar_first_sound_1": "nest",
      "similar_first_sound_2": "net",
      "similar_first_sound_3": "",
      "exclude1": "",
      "exclude2": "",
      "exclude3": ""
    },
    {
      "q": "nest",
      "sound": "n",
      "image": "nest",
      "audio": "nest",
      "sound_audio": "n",
      "secondary_first_sound": "net",
      "similar_first_sound_1": "motorbike",
      "similar_first_sound_2": "man",
      "similar_first_sound_3": "",
      "exclude1": "pen",
      "exclude2": "net",
      "exclude3": ""
    },
    {
      "q": "net",
      "sound": "n",
      "image": "net",
      "audio": "net",
      "sound_audio": "n",
      "secondary_first_sound": "nest",
      "similar_first_sound_1": "motorbike",
      "similar_first_sound_2": "man",
      "similar_first_sound_3": "",
      "exclude1": "ten",
      "exclude2": "pen",
      "exclude3": ""
    },
    {
      "q": "octopus",
      "sound": "o",
      "image": "octopus",
      "audio": "octopus",
      "sound_audio": "o",
      "secondary_first_sound": "",
      "similar_first_sound_1": "",
      "similar_first_sound_2": "",
      "similar_first_sound_3": "",
      "exclude1": "dog",
      "exclude2": "king",
      "exclude3": ""
    },
    {
      "q": "penguin",
      "sound": "p",
      "image": "penguin",
      "audio": "penguin",
      "sound_audio": "p",
      "secondary_first_sound": "pen",
      "similar_first_sound_1": "bone",
      "similar_first_sound_2": "bat",
      "similar_first_sound_3": "",
      "exclude1": "",
      "exclude2": "",
      "exclude3": ""
    },
    {
      "q": "pen",
      "sound": "p",
      "image": "pen",
      "audio": "pen",
      "sound_audio": "p",
      "secondary_first_sound": "penguin",
      "similar_first_sound_1": "bone",
      "similar_first_sound_2": "bat",
      "similar_first_sound_3": "",
      "exclude1": "nest",
      "exclude2": "net",
      "exclude3": ""
    },
    {
      "q": "queen",
      "sound": "q",
      "image": "queen",
      "audio": "queen",
      "sound_audio": "q",
      "secondary_first_sound": "quack",
      "similar_first_sound_1": "kangaroo",
      "similar_first_sound_2": "key",
      "similar_first_sound_3": "",
      "exclude1": "",
      "exclude2": "",
      "exclude3": ""
    },
    {
      "q": "quack",
      "sound": "q",
      "image": "quack",
      "audio": "quack",
      "sound_audio": "q",
      "secondary_first_sound": "queen",
      "similar_first_sound_1": "kangaroo",
      "similar_first_sound_2": "key",
      "similar_first_sound_3": "",
      "exclude1": "",
      "exclude2": "cake",
      "exclude3": ""
    },
    {
      "q": "rabbit",
      "sound": "r",
      "image": "rabbit",
      "audio": "rabbit",
      "sound_audio": "r",
      "secondary_first_sound": "red",
      "similar_first_sound_1": "watch",
      "similar_first_sound_2": "web",
      "similar_first_sound_3": "lion",
      "exclude1": "king",
      "exclude2": "apple",
      "exclude3": "bat"
    },
    {
      "q": "red",
      "sound": "r",
      "image": "red",
      "audio": "red",
      "sound_audio": "r",
      "secondary_first_sound": "rabbit",
      "similar_first_sound_1": "watch",
      "similar_first_sound_2": "web",
      "similar_first_sound_3": "log",
      "exclude1": "kangaroo ",
      "exclude2": "zebra",
      "exclude3": "elephant"
    },
    {
      "q": "sand",
      "sound": "s",
      "image": "sand",
      "audio": "sand",
      "sound_audio": "s",
      "secondary_first_sound": "sun",
      "similar_first_sound_1": "zebra",
      "similar_first_sound_2": "zig zag",
      "similar_first_sound_3": "",
      "exclude1": "",
      "exclude2": "",
      "exclude3": ""
    },
    {
      "q": "sun",
      "sound": "s",
      "image": "sun",
      "audio": "sun",
      "sound_audio": "s",
      "secondary_first_sound": "sand",
      "similar_first_sound_1": "zebra",
      "similar_first_sound_2": "zig zag",
      "similar_first_sound_3": "",
      "exclude1": "six",
      "exclude2": "",
      "exclude3": ""
    },
    {
      "q": "teddy",
      "sound": "t",
      "image": "teddy",
      "audio": "teddy",
      "sound_audio": "t",
      "secondary_first_sound": "ten",
      "similar_first_sound_1": "duck",
      "similar_first_sound_2": "dog",
      "similar_first_sound_3": "",
      "exclude1": "watch",
      "exclude2": "bat",
      "exclude3": ""
    },
    {
      "q": "ten",
      "sound": "t",
      "image": "ten",
      "audio": "ten",
      "sound_audio": "t",
      "secondary_first_sound": "teddy",
      "similar_first_sound_1": "duck",
      "similar_first_sound_2": "dog",
      "similar_first_sound_3": "",
      "exclude1": "",
      "exclude2": "net",
      "exclude3": ""
    },
    {
      "q": "umbrella",
      "sound": "u",
      "image": "umbrella",
      "audio": "umbrella",
      "sound_audio": "u",
      "secondary_first_sound": "up",
      "similar_first_sound_1": "motobike",
      "similar_first_sound_2": "man",
      "similar_first_sound_3": "",
      "exclude1": "milk",
      "exclude2": "",
      "exclude3": ""
    },
    {
      "q": "up",
      "sound": "u",
      "image": "up",
      "audio": "up",
      "sound_audio": "u",
      "secondary_first_sound": "umbrella",
      "similar_first_sound_1": "",
      "similar_first_sound_2": "",
      "similar_first_sound_3": "",
      "exclude1": "",
      "exclude2": "",
      "exclude3": ""
    },
    {
      "q": "volcano",
      "sound": "v",
      "image": "volcano",
      "audio": "volcano",
      "sound_audio": "v",
      "secondary_first_sound": "van",
      "similar_first_sound_1": "five",
      "similar_first_sound_2": "fish",
      "similar_first_sound_3": "fox",
      "exclude1": "",
      "exclude2": "",
      "exclude3": ""
    },
    {
      "q": "van",
      "sound": "v",
      "image": "van",
      "audio": "van",
      "sound_audio": "v",
      "secondary_first_sound": "volcano",
      "similar_first_sound_1": "five",
      "similar_first_sound_2": "fish",
      "similar_first_sound_3": "fox",
      "exclude1": "",
      "exclude2": "",
      "exclude3": ""
    },
    {
      "q": "watch",
      "sound": "w",
      "image": "watch",
      "audio": "watch",
      "sound_audio": "w",
      "secondary_first_sound": "web",
      "similar_first_sound_1": "red",
      "similar_first_sound_2": "lion",
      "similar_first_sound_3": "yellow",
      "exclude1": "teddy",
      "exclude2": "",
      "exclude3": ""
    },
    {
      "q": "web",
      "sound": "w",
      "image": "web",
      "audio": "web",
      "sound_audio": "w",
      "secondary_first_sound": "watch",
      "similar_first_sound_1": "rabbit",
      "similar_first_sound_2": "log",
      "similar_first_sound_3": "yo-yo",
      "exclude1": "",
      "exclude2": "",
      "exclude3": ""
    },
    {
      "q": "six",
      "sound": "x",
      "image": "six",
      "audio": "six",
      "sound_audio": "ks",
      "secondary_first_sound": "sun",
      "similar_first_sound_1": "zebra",
      "similar_first_sound_2": "zig zag",
      "similar_first_sound_3": "chimp ",
      "exclude1": "in",
      "exclude2": "egg",
      "exclude3": "sun"
    },
    {
      "q": "fox",
      "sound": "x",
      "image": "fox",
      "audio": "fox",
      "sound_audio": "ks",
      "secondary_first_sound": "fish",
      "similar_first_sound_1": "van",
      "similar_first_sound_2": "",
      "similar_first_sound_3": "",
      "exclude1": "",
      "exclude2": "fish",
      "exclude3": ""
    },
    {
      "q": "yellow",
      "sound": "y",
      "image": "yellow",
      "audio": "yellow",
      "sound_audio": "y",
      "secondary_first_sound": "",
      "similar_first_sound_1": "watch",
      "similar_first_sound_2": "web",
      "similar_first_sound_3": "lion",
      "exclude1": "",
      "exclude2": "",
      "exclude3": ""
    },
    {
      "q": "yo-yo",
      "sound": "y",
      "image": "yo-yo",
      "audio": "yoyo",
      "sound_audio": "y",
      "secondary_first_sound": "",
      "similar_first_sound_1": "web",
      "similar_first_sound_2": "lion",
      "similar_first_sound_3": "log",
      "exclude1": "",
      "exclude2": "",
      "exclude3": ""
    },
    {
      "q": "zebra",
      "sound": "z",
      "image": "zebra",
      "audio": "zebra",
      "sound_audio": "z",
      "secondary_first_sound": "zig zag",
      "similar_first_sound_1": "six",
      "similar_first_sound_2": "sand",
      "similar_first_sound_3": "sun",
      "exclude1": "red",
      "exclude2": "",
      "exclude3": ""
    },
    {
      "q": "zig zag",
      "sound": "z",
      "image": "zigzag",
      "audio": "zigzag",
      "sound_audio": "z",
      "secondary_first_sound": "zebra",
      "similar_first_sound_1": "six",
      "similar_first_sound_2": "sand",
      "similar_first_sound_3": "sun",
      "exclude1": "",
      "exclude2": "",
      "exclude3": ""
    },
    {
      "q": "ship",
      "sound": "sh",
      "image": "",
      "audio": "ship",
      "sound_audio": "sh",
      "secondary_first_sound": "shark",
      "similar_first_sound_1": "",
      "similar_first_sound_2": "",
      "similar_first_sound_3": "",
      "exclude1": "",
      "exclude2": "",
      "exclude3": ""
    },
    {
      "q": "chin",
      "sound": "ch",
      "image": "",
      "audio": "chin",
      "sound_audio": "ch",
      "secondary_first_sound": "chick",
      "similar_first_sound_1": "chimp",
      "similar_first_sound_2": "",
      "similar_first_sound_3": "",
      "exclude1": "",
      "exclude2": "",
      "exclude3": ""
    },
    {
      "q": "chick",
      "sound": "ch",
      "image": "",
      "audio": "chick",
      "sound_audio": "ch",
      "secondary_first_sound": "chin",
      "similar_first_sound_1": "chimp",
      "similar_first_sound_2": "",
      "similar_first_sound_3": "",
      "exclude1": "",
      "exclude2": "",
      "exclude3": ""
    },
    {
      "q": "thin",
      "sound": "th",
      "image": "",
      "audio": "thin",
      "sound_audio": "th",
      "secondary_first_sound": "thick",
      "similar_first_sound_1": "",
      "similar_first_sound_2": "",
      "similar_first_sound_3": "",
      "exclude1": "",
      "exclude2": "",
      "exclude3": ""
    },
    {
      "q": "thick",
      "sound": "th",
      "image": "",
      "audio": "thick",
      "sound_audio": "th",
      "secondary_first_sound": "thin",
      "similar_first_sound_1": "",
      "similar_first_sound_2": "",
      "similar_first_sound_3": "",
      "exclude1": "",
      "exclude2": "",
      "exclude3": ""
    },
    {
      "q": "king",
      "sound": "k",
      "image": "",
      "audio": "king",
      "sound_audio": "k",
      "secondary_first_sound": "kangaroo",
      "similar_first_sound_1": "queen",
      "similar_first_sound_2": "quck",
      "similar_first_sound_3": "cat",
      "exclude1": "quack",
      "exclude2": "octopus",
      "exclude3": ""
    },
    {
      "q": "chimp",
      "sound": "ch",
      "image": "",
      "audio": "chimp",
      "sound_audio": "ch",
      "secondary_first_sound": "chick",
      "similar_first_sound_1": "chin",
      "similar_first_sound_2": "six",
      "similar_first_sound_3": "in",
      "exclude1": "",
      "exclude2": "",
      "exclude3": ""
    },
    {
      "q": "shark",
      "sound": "sh",
      "image": "",
      "audio": "shark",
      "sound_audio": "sh",
      "secondary_first_sound": "ship",
      "similar_first_sound_1": "",
      "similar_first_sound_2": "",
      "similar_first_sound_3": "jellyfish",
      "exclude1": "",
      "exclude2": "",
      "exclude3": ""
    },
    {
      "q": "thorn",
      "sound": "th",
      "image": "",
      "audio": "thorn",
      "sound_audio": "th",
      "secondary_first_sound": "",
      "similar_first_sound_1": "",
      "similar_first_sound_2": "",
      "similar_first_sound_3": "",
      "exclude1": "",
      "exclude2": "",
      "exclude3": ""
    },
    {
      "q": "whale",
      "sound": "w",
      "image": "",
      "audio": "whale",
      "sound_audio": "w",
      "secondary_first_sound": "web",
      "similar_first_sound_1": "red",
      "similar_first_sound_2": "lion",
      "similar_first_sound_3": "yellow",
      "exclude1": "",
      "exclude2": "",
      "exclude3": ""
    },
    {
      "q": "milk",
      "sound": "m",
      "image": "",
      "audio": "milk",
      "sound_audio": "m",
      "secondary_first_sound": "man",
      "similar_first_sound_1": "nest",
      "similar_first_sound_2": "net",
      "similar_first_sound_3": "",
      "exclude1": "umbrella",
      "exclude2": "",
      "exclude3": ""
    }
  ]
}
