{
  "rows": [
    {
      "word": "cat",
      "rhyme": "hat",
      "image": "cat",
      "audio": "cat",
      "word1": "cap",
      "word2": "cup",
      "word3": "cut",
      "word4": "camp",
      "exclude1": "",
      "exclude2": ""
    },
    {
      "word": "hat",
      "rhyme": "cat",
      "image": "hat",
      "audio": "hat",
      "word1": "hop",
      "word2": "hand",
      "word3": "hut",
      "word4": "",
      "exclude1": "",
      "exclude2": ""
    },
    {
      "word": "man",
      "rhyme": "van",
      "image": "man",
      "audio": "man",
      "word1": "mad",
      "word2": "map",
      "word3": "mix",
      "word4": "mop",
      "exclude1": "",
      "exclude2": ""
    },
    {
      "word": "van",
      "rhyme": "man",
      "image": "van",
      "audio": "van",
      "word1": "",
      "word2": "",
      "word3": "",
      "word4": "",
      "exclude1": "",
      "exclude2": ""
    },
    {
      "word": "Dad",
      "rhyme": "mad",
      "image": "Dad",
      "audio": "Dad",
      "word1": "dog",
      "word2": "dot",
      "word3": "drip",
      "word4": "drum",
      "exclude1": "",
      "exclude2": ""
    },
    {
      "word": "mad",
      "rhyme": "Dad",
      "image": "mad",
      "audio": "mad",
      "word1": "man",
      "word2": "map",
      "word3": "mix",
      "word4": "mop",
      "exclude1": "",
      "exclude2": ""
    },
    {
      "word": "cap",
      "rhyme": "map",
      "image": "cap",
      "audio": "cap",
      "word1": "cat",
      "word2": "cup",
      "word3": "cut",
      "word4": "camp",
      "exclude1": "clap",
      "exclude2": "map"
    },
    {
      "word": "map",
      "rhyme": "cap",
      "image": "map",
      "audio": "map",
      "word1": "man",
      "word2": "mad",
      "word3": "mix",
      "word4": "mop",
      "exclude1": "clap",
      "exclude2": "map"
    },
    {
      "word": "net",
      "rhyme": "wet",
      "image": "net",
      "audio": "net",
      "word1": "nest",
      "word2": "",
      "word3": "",
      "word4": "",
      "exclude1": "",
      "exclude2": ""
    },
    {
      "word": "wet",
      "rhyme": "net",
      "image": "wet",
      "audio": "wet",
      "word1": "",
      "word2": "",
      "word3": "",
      "word4": "",
      "exclude1": "",
      "exclude2": ""
    },
    {
      "word": "pen",
      "rhyme": "ten",
      "image": "pen",
      "audio": "pen",
      "word1": "peg",
      "word2": "plum",
      "word3": "pot",
      "word4": "",
      "exclude1": "",
      "exclude2": ""
    },
    {
      "word": "ten",
      "rhyme": "pen",
      "image": "ten",
      "audio": "ten",
      "word1": "twin",
      "word2": "tent",
      "word3": "",
      "word4": "",
      "exclude1": "",
      "exclude2": ""
    },
    {
      "word": "bed",
      "rhyme": "red",
      "image": "bed",
      "audio": "bed",
      "word1": "box",
      "word2": "bent",
      "word3": "bump",
      "word4": "",
      "exclude1": "",
      "exclude2": ""
    },
    {
      "word": "red",
      "rhyme": "bed",
      "image": "red",
      "audio": "red",
      "word1": "run",
      "word2": "",
      "word3": "",
      "word4": "",
      "exclude1": "",
      "exclude2": ""
    },
    {
      "word": "leg",
      "rhyme": "peg",
      "image": "leg",
      "audio": "leg",
      "word1": "log",
      "word2": "lamp",
      "word3": "list",
      "word4": "",
      "exclude1": "",
      "exclude2": ""
    },
    {
      "word": "peg",
      "rhyme": "leg",
      "image": "peg",
      "audio": "peg",
      "word1": "pen",
      "word2": "plum",
      "word3": "pot",
      "word4": "",
      "exclude1": "",
      "exclude2": ""
    },
    {
      "word": "six",
      "rhyme": "mix",
      "image": "six",
      "audio": "six",
      "word1": "skip",
      "word2": "sand",
      "word3": "",
      "word4": "",
      "exclude1": "",
      "exclude2": ""
    },
    {
      "word": "mix",
      "rhyme": "six",
      "image": "mix",
      "audio": "mix",
      "word1": "mad",
      "word2": "man",
      "word3": "map",
      "word4": "mop",
      "exclude1": "",
      "exclude2": ""
    },
    {
      "word": "dog",
      "rhyme": "log",
      "image": "dog",
      "audio": "dog",
      "word1": "Dad",
      "word2": "dot",
      "word3": "drip",
      "word4": "drum",
      "exclude1": "",
      "exclude2": ""
    },
    {
      "word": "log",
      "rhyme": "dog",
      "image": "log",
      "audio": "log",
      "word1": "leg",
      "word2": "lamp",
      "word3": "list",
      "word4": "",
      "exclude1": "",
      "exclude2": ""
    },
    {
      "word": "hop",
      "rhyme": "mop",
      "image": "hop",
      "audio": "hop",
      "word1": "hat",
      "word2": "hand",
      "word3": "hut",
      "word4": "",
      "exclude1": "drop",
      "exclude2": "stop"
    },
    {
      "word": "mop",
      "rhyme": "hop",
      "image": "mop",
      "audio": "mop",
      "word1": "mix",
      "word2": "man",
      "word3": "mad",
      "word4": "map",
      "exclude1": "drop",
      "exclude2": "stop"
    },
    {
      "word": "fox",
      "rhyme": "box",
      "image": "fox",
      "audio": "fox",
      "word1": "fist",
      "word2": "",
      "word3": "",
      "word4": "",
      "exclude1": "",
      "exclude2": ""
    },
    {
      "word": "box",
      "rhyme": "fox",
      "image": "box",
      "audio": "box",
      "word1": "bed",
      "word2": "bent",
      "word3": "bump",
      "word4": "",
      "exclude1": "",
      "exclude2": ""
    },
    {
      "word": "pot",
      "rhyme": "dot",
      "image": "pot",
      "audio": "pot",
      "word1": "peg",
      "word2": "pen",
      "word3": "plum",
      "word4": "",
      "exclude1": "",
      "exclude2": ""
    },
    {
      "word": "dot",
      "rhyme": "pot",
      "image": "dot",
      "audio": "dot",
      "word1": "dog",
      "word2": "Dad",
      "word3": "drip",
      "word4": "drum",
      "exclude1": "",
      "exclude2": ""
    },
    {
      "word": "jug",
      "rhyme": "mug",
      "image": "jug",
      "audio": "jug",
      "word1": "jump",
      "word2": "",
      "word3": "",
      "word4": "",
      "exclude1": "slug",
      "exclude2": "plug"
    },
    {
      "word": "mug",
      "rhyme": "jug",
      "image": "mug",
      "audio": "mug",
      "word1": "mop",
      "word2": "mix",
      "word3": "man",
      "word4": "mad",
      "exclude1": "slug",
      "exclude2": "plug"
    },
    {
      "word": "run",
      "rhyme": "sun",
      "image": "run",
      "audio": "run",
      "word1": "rest",
      "word2": "",
      "word3": "",
      "word4": "",
      "exclude1": "",
      "exclude2": ""
    },
    {
      "word": "sun",
      "rhyme": "run",
      "image": "sun",
      "audio": "sun",
      "word1": "skip",
      "word2": "sand",
      "word3": "",
      "word4": "",
      "exclude1": "",
      "exclude2": ""
    },
    {
      "word": "cup",
      "rhyme": "up",
      "image": "cup",
      "audio": "cup",
      "word1": "cap",
      "word2": "cat",
      "word3": "cut",
      "word4": "camp",
      "exclude1": "",
      "exclude2": ""
    },
    {
      "word": "up",
      "rhyme": "cup",
      "image": "up",
      "audio": "up",
      "word1": "",
      "word2": "",
      "word3": "",
      "word4": "",
      "exclude1": "",
      "exclude2": ""
    },
    {
      "word": "cut",
      "rhyme": "hut",
      "image": "cut",
      "audio": "cut",
      "word1": "cup",
      "word2": "cap",
      "word3": "cat",
      "word4": "camp",
      "exclude1": "",
      "exclude2": ""
    },
    {
      "word": "hut",
      "rhyme": "cut",
      "image": "hut",
      "audio": "hut",
      "word1": "hop",
      "word2": "hat",
      "word3": "hand",
      "word4": "",
      "exclude1": "bump",
      "exclude2": ""
    },
    {
      "word": "drip",
      "rhyme": "skip",
      "image": "drip",
      "audio": "drip",
      "word1": "dot",
      "word2": "dog",
      "word3": "Dad",
      "word4": "drum",
      "exclude1": "Chip",
      "exclude2": "ship"
    },
    {
      "word": "skip",
      "rhyme": "drip",
      "image": "skip",
      "audio": "skip",
      "word1": "sun",
      "word2": "sand",
      "word3": "",
      "word4": "",
      "exclude1": "Chip",
      "exclude2": "ship"
    },
    {
      "word": "plum",
      "rhyme": "drum",
      "image": "plum",
      "audio": "plum",
      "word1": "peg",
      "word2": "pen",
      "word3": "",
      "word4": "",
      "exclude1": "",
      "exclude2": ""
    },
    {
      "word": "drum",
      "rhyme": "plum",
      "image": "drum",
      "audio": "drum",
      "word1": "dot",
      "word2": "dog",
      "word3": "Dad",
      "word4": "drip",
      "exclude1": "",
      "exclude2": ""
    },
    {
      "word": "grin",
      "rhyme": "twin",
      "image": "grin",
      "audio": "grin",
      "word1": "",
      "word2": "",
      "word3": "",
      "word4": "",
      "exclude1": "",
      "exclude2": ""
    },
    {
      "word": "twin",
      "rhyme": "grin",
      "image": "twin",
      "audio": "twin",
      "word1": "tent",
      "word2": "",
      "word3": "",
      "word4": "",
      "exclude1": "",
      "exclude2": ""
    },
    {
      "word": "sand",
      "rhyme": "hand",
      "image": "sand",
      "audio": "sand",
      "word1": "skip",
      "word2": "sun",
      "word3": "",
      "word4": "",
      "exclude1": "",
      "exclude2": ""
    },
    {
      "word": "hand",
      "rhyme": "sand",
      "image": "hand",
      "audio": "hand",
      "word1": "hop",
      "word2": "hat",
      "word3": "hut",
      "word4": "",
      "exclude1": "",
      "exclude2": ""
    },
    {
      "word": "camp",
      "rhyme": "lamp",
      "image": "camp",
      "audio": "camp",
      "word1": "cut",
      "word2": "cup",
      "word3": "cap",
      "word4": "cat",
      "exclude1": "",
      "exclude2": ""
    },
    {
      "word": "lamp",
      "rhyme": "camp",
      "image": "lamp",
      "audio": "lamp",
      "word1": "log",
      "word2": "leg",
      "word3": "list",
      "word4": "",
      "exclude1": "",
      "exclude2": ""
    },
    {
      "word": "nest",
      "rhyme": "rest",
      "image": "nest",
      "audio": "nest",
      "word1": "",
      "word2": "",
      "word3": "",
      "word4": "",
      "exclude1": "",
      "exclude2": ""
    },
    {
      "word": "rest",
      "rhyme": "nest",
      "image": "rest",
      "audio": "rest",
      "word1": "run",
      "word2": "",
      "word3": "",
      "word4": "",
      "exclude1": "",
      "exclude2": ""
    },
    {
      "word": "tent",
      "rhyme": "bent",
      "image": "tent",
      "audio": "tent",
      "word1": "twin",
      "word2": "",
      "word3": "",
      "word4": "",
      "exclude1": "",
      "exclude2": ""
    },
    {
      "word": "bent",
      "rhyme": "tent",
      "image": "bent",
      "audio": "bent",
      "word1": "box",
      "word2": "bed",
      "word3": "bump",
      "word4": "",
      "exclude1": "",
      "exclude2": ""
    },
    {
      "word": "fist",
      "rhyme": "list",
      "image": "fist",
      "audio": "fist",
      "word1": "fox",
      "word2": "",
      "word3": "",
      "word4": "",
      "exclude1": "",
      "exclude2": ""
    },
    {
      "word": "list",
      "rhyme": "fist",
      "image": "list",
      "audio": "list",
      "word1": "lamp",
      "word2": "log",
      "word3": "leg",
      "word4": "",
      "exclude1": "",
      "exclude2": ""
    },
    {
      "word": "jump",
      "rhyme": "bump",
      "image": "jump",
      "audio": "jump",
      "word1": "jug",
      "word2": "",
      "word3": "",
      "word4": "",
      "exclude1": "",
      "exclude2": ""
    },
    {
      "word": "bump",
      "rhyme": "jump",
      "image": "bump",
      "audio": "bump",
      "word1": "box",
      "word2": "bed",
      "word3": "bent",
      "word4": "",
      "exclude1": "hut",
      "exclude2": ""
    },
    {
      "word": "ship",
      "rhyme": "Chip",
      "image": "",
      "audio": "ship",
      "word1": "",
      "word2": "",
      "word3": "",
      "word4": "",
      "exclude1": "skip",
      "exclude2": "drip"
    },
    {
      "word": "Chip",
      "rhyme": "ship",
      "image": "",
      "audio": "chip",
      "word1": "",
      "word2": "",
      "word3": "",
      "word4": "",
      "exclude1": "skip",
      "exclude2": "drip"
    },
    {
      "word": "fish",
      "rhyme": "dish",
      "image": "",
      "audio": "fish",
      "word1": "",
      "word2": "",
      "word3": "",
      "word4": "",
      "exclude1": "",
      "exclude2": ""
    },
    {
      "word": "dish",
      "rhyme": "fish",
      "image": "",
      "audio": "dish",
      "word1": "",
      "word2": "",
      "word3": "",
      "word4": "",
      "exclude1": "",
      "exclude2": ""
    },
    {
      "word": "chick",
      "rhyme": "lick",
      "image": "",
      "audio": "chick",
      "word1": "",
      "word2": "",
      "word3": "",
      "word4": "",
      "exclude1": "",
      "exclude2": ""
    },
    {
      "word": "lick",
      "rhyme": "chick",
      "image": "",
      "audio": "lick",
      "word1": "",
      "word2": "",
      "word3": "",
      "word4": "",
      "exclude1": "",
      "exclude2": ""
    },
    {
      "word": "clap",
      "rhyme": "snap",
      "image": "",
      "audio": "clap",
      "word1": "",
      "word2": "",
      "word3": "",
      "word4": "",
      "exclude1": "map",
      "exclude2": "clap"
    },
    {
      "word": "snap",
      "rhyme": "clap",
      "image": "",
      "audio": "snap",
      "word1": "",
      "word2": "",
      "word3": "",
      "word4": "",
      "exclude1": "map",
      "exclude2": "clap"
    },
    {
      "word": "flag",
      "rhyme": "drag",
      "image": "",
      "audio": "flag",
      "word1": "",
      "word2": "",
      "word3": "",
      "word4": "",
      "exclude1": "",
      "exclude2": ""
    },
    {
      "word": "drag",
      "rhyme": "flag",
      "image": "",
      "audio": "drag",
      "word1": "",
      "word2": "",
      "word3": "",
      "word4": "",
      "exclude1": "",
      "exclude2": ""
    },
    {
      "word": "stop",
      "rhyme": "drop",
      "image": "",
      "audio": "stop",
      "word1": "",
      "word2": "",
      "word3": "",
      "word4": "",
      "exclude1": "hop",
      "exclude2": "mop"
    },
    {
      "word": "drop",
      "rhyme": "stop",
      "image": "",
      "audio": "drop",
      "word1": "",
      "word2": "",
      "word3": "",
      "word4": "",
      "exclude1": "hop",
      "exclude2": "mop"
    },
    {
      "word": "plug",
      "rhyme": "slug",
      "image": "",
      "audio": "plug",
      "word1": "",
      "word2": "",
      "word3": "",
      "word4": "",
      "exclude1": "mug",
      "exclude2": "jug"
    },
    {
      "word": "slug",
      "rhyme": "plug",
      "image": "",
      "audio": "slug",
      "word1": "",
      "word2": "",
      "word3": "",
      "word4": "",
      "exclude1": "mug",
      "exclude2": "jug"
    },
    {
      "word": "chimp",
      "rhyme": "limp",
      "image": "",
      "audio": "chimp",
      "word1": "",
      "word2": "",
      "word3": "",
      "word4": "",
      "exclude1": "",
      "exclude2": ""
    },
    {
      "word": "limp",
      "rhyme": "chimp",
      "image": "",
      "audio": "limp",
      "word1": "",
      "word2": "",
      "word3": "",
      "word4": "",
      "exclude1": "",
      "exclude2": ""
    }
  ]
}
